Code/dump.vcd
$date
	Fri Aug 11 13:17:04 2023
$end
$version
	ModelSim Version 10.5b
$end
$timescale
	1ns
$end

$scope module tb_top $end
$var reg 1 ! clk $end
$var reg 1 " rst $end
$var reg 1 # start_b $end
$var reg 1 $ stop_b $end
$var wire 1 % led [2] $end
$var wire 1 & led [1] $end
$var wire 1 ' led [0] $end

$scope module led_fsm $end
$var parameter 3 ( STATE_RST $end
$var parameter 3 ) STATE_OFF $end
$var parameter 3 * STATE_LED1 $end
$var parameter 3 + STATE_LED2 $end
$var parameter 3 , STATE_ON $end
$var wire 1 - clk $end
$var wire 1 . rst $end
$var wire 1 / start_b $end
$var wire 1 0 stop_b $end
$var wire 1 % led [2] $end
$var wire 1 & led [1] $end
$var wire 1 ' led [0] $end
$var reg 3 1 state_ff [2:0] $end
$var reg 3 2 state_nxt [2:0] $end
$var reg 3 3 led_ff [2:0] $end
$var reg 3 4 led_nxt [2:0] $end
$var reg 1 5 blink_ff $end
$var reg 1 6 blink_nxt $end
$var reg 1 7 up_ff $end
$var reg 1 8 up_nxt $end
$var reg 2 9 count_ff [1:0] $end
$var reg 2 : count_nxt [1:0] $end
$upscope $end
$upscope $end
$enddefinitions $end
#0
$dumpvars
0!
1"
0#
0$
b0 1
b1 2
b0 3
b0 4
05
06
07
08
b0 9
b0 :
b0 (
b1 )
b10 *
b11 +
b100 ,
0'
0&
0%
00
0/
1.
0-
$end
#2
1!
1-
#3
0"
0.
#4
0!
0-
#6
1!
1-
b1 1
#8
0!
0-
#10
1!
1-
#12
0!
0-
#14
1!
1-
#16
0!
0-
#18
1!
1-
#20
0!
0-
#22
1!
1-
#23
1#
1/
b10 2
18
b100 4
#24
0!
0-
#26
1!
1-
b10 1
b100 3
17
1%
b11 2
b110 4
#28
0#
0!
0/
0-
b10 2
b100 4
b11 2
b110 4
#30
1!
1-
b11 1
b110 3
1&
b100 2
b111 4
#32
0!
0-
#34
1!
1-
b100 1
b111 3
1'
b1 2
b1 :
16
b0 4
#36
0!
0-
#38
1!
1-
b1 1
b0 3
15
b1 9
0'
0&
0%
b100 2
b111 4
#40
0!
0-
#42
1!
1-
b100 1
b111 3
1'
1&
1%
b1 2
b10 :
b0 4
#44
0!
0-
#46
1!
1-
b1 1
b0 3
b10 9
0'
0&
0%
b100 2
b111 4
#48
0!
0-
#50
1!
1-
b100 1
b111 3
1'
1&
1%
b1 2
b11 :
b0 4
#52
0!
0-
#54
1!
1-
b1 1
b0 3
b11 9
0'
0&
0%
b100 2
b111 4
#56
0!
0-
#58
1!
1-
b100 1
b111 3
1'
1&
1%
b11 2
08
b0 :
06
b110 4
#60
0!
0-
#62
1!
1-
b11 1
b110 3
05
b0 9
07
0'
b10 2
b100 4
#64
0!
0-
#66
1!
1-
b10 1
b100 3
0&
b1 2
b0 4
#68
0!
0-
#70
1!
1-
b1 1
b0 3
0%
#72
0!
0-
#74
1!
1-
#76
0!
0-
#78
1!
1-
#80
0!
0-
#82
1!
1-
#84
0!
0-
#86
1!
1-
#88
0!
0-
#90
1!
1-
#92
0!
0-
#94
1!
1-
#96
0!
0-
#98
1#
1!
1/
1-
b10 2
18
b100 4
#100
0!
0-
#102
1!
1-
b10 1
b100 3
17
1%
b11 2
b110 4
#104
0!
0-
#106
1!
1-
b11 1
b110 3
1&
b100 2
b111 4
#108
0!
0-
#110
1!
1-
b100 1
b111 3
1'
b1 2
b1 :
16
b0 4
#112
0!
0-
#113
0#
0/
b100 2
b111 4
06
b0 :
b1 2
b1 :
16
b0 4
#114
1!
1-
b1 1
b0 3
15
b1 9
0'
0&
0%
b100 2
b111 4
#116
0!
0-
#118
1!
1-
b100 1
b111 3
1'
1&
1%
b1 2
b10 :
b0 4
#120
0!
0-
#122
1!
1-
b1 1
b0 3
b10 9
0'
0&
0%
b100 2
b111 4
#123
1$
10
05
b0 9
07
b1 2
b0 4
06
b0 :
08
#124
0!
0-
#126
1!
1-
#128
0$
0!
00
0-
